-- Merging decision tree log ---
manifest
ADDED from D:\AndroidStudioProjects\UF1-1-A13_Spinner_Intents_2\app\src\main\AndroidManifest.xml:1:1-21:12
INJECTED from D:\AndroidStudioProjects\UF1-1-A13_Spinner_Intents_2\app\src\main\AndroidManifest.xml:1:1-21:12
INJECTED from D:\AndroidStudioProjects\UF1-1-A13_Spinner_Intents_2\app\src\main\AndroidManifest.xml:1:1-21:12
INJECTED from D:\AndroidStudioProjects\UF1-1-A13_Spinner_Intents_2\app\src\main\AndroidManifest.xml:1:1-21:12
INJECTED from D:\AndroidStudioProjects\UF1-1-A13_Spinner_Intents_2\app\src\main\AndroidManifest.xml:1:1-21:12
INJECTED from D:\AndroidStudioProjects\UF1-1-A13_Spinner_Intents_2\app\src\main\AndroidManifest.xml:1:1-21:12
INJECTED from D:\AndroidStudioProjects\UF1-1-A13_Spinner_Intents_2\app\src\main\AndroidManifest.xml:1:1-21:12
	package
		ADDED from D:\AndroidStudioProjects\UF1-1-A13_Spinner_Intents_2\app\src\main\AndroidManifest.xml:2:5-54
		INJECTED from D:\AndroidStudioProjects\UF1-1-A13_Spinner_Intents_2\app\src\main\AndroidManifest.xml
		INJECTED from D:\AndroidStudioProjects\UF1-1-A13_Spinner_Intents_2\app\src\main\AndroidManifest.xml
	android:versionName
		ADDED from D:\AndroidStudioProjects\UF1-1-A13_Spinner_Intents_2\app\src\main\AndroidManifest.xml:4:5-30
		INJECTED from D:\AndroidStudioProjects\UF1-1-A13_Spinner_Intents_2\app\src\main\AndroidManifest.xml
		INJECTED from D:\AndroidStudioProjects\UF1-1-A13_Spinner_Intents_2\app\src\main\AndroidManifest.xml
	xmlns:android
		ADDED from D:\AndroidStudioProjects\UF1-1-A13_Spinner_Intents_2\app\src\main\AndroidManifest.xml:1:11-69
	android:versionCode
		ADDED from D:\AndroidStudioProjects\UF1-1-A13_Spinner_Intents_2\app\src\main\AndroidManifest.xml:3:5-28
		INJECTED from D:\AndroidStudioProjects\UF1-1-A13_Spinner_Intents_2\app\src\main\AndroidManifest.xml
		INJECTED from D:\AndroidStudioProjects\UF1-1-A13_Spinner_Intents_2\app\src\main\AndroidManifest.xml
application
ADDED from D:\AndroidStudioProjects\UF1-1-A13_Spinner_Intents_2\app\src\main\AndroidManifest.xml:6:5-19:19
	android:label
		ADDED from D:\AndroidStudioProjects\UF1-1-A13_Spinner_Intents_2\app\src\main\AndroidManifest.xml:8:9-41
	android:icon
		ADDED from D:\AndroidStudioProjects\UF1-1-A13_Spinner_Intents_2\app\src\main\AndroidManifest.xml:7:9-45
	android:theme
		ADDED from D:\AndroidStudioProjects\UF1-1-A13_Spinner_Intents_2\app\src\main\AndroidManifest.xml:9:9-40
activity#com.example.uf1_1_a13_spinner_intents_2.MainActivity
ADDED from D:\AndroidStudioProjects\UF1-1-A13_Spinner_Intents_2\app\src\main\AndroidManifest.xml:10:9-18:20
	android:label
		ADDED from D:\AndroidStudioProjects\UF1-1-A13_Spinner_Intents_2\app\src\main\AndroidManifest.xml:12:13-56
	android:name
		ADDED from D:\AndroidStudioProjects\UF1-1-A13_Spinner_Intents_2\app\src\main\AndroidManifest.xml:11:13-41
intent-filter#action:name:android.intent.action.MAIN+category:name:android.intent.category.LAUNCHER
ADDED from D:\AndroidStudioProjects\UF1-1-A13_Spinner_Intents_2\app\src\main\AndroidManifest.xml:13:13-17:29
action#android.intent.action.MAIN
ADDED from D:\AndroidStudioProjects\UF1-1-A13_Spinner_Intents_2\app\src\main\AndroidManifest.xml:14:17-69
	android:name
		ADDED from D:\AndroidStudioProjects\UF1-1-A13_Spinner_Intents_2\app\src\main\AndroidManifest.xml:14:25-66
category#android.intent.category.LAUNCHER
ADDED from D:\AndroidStudioProjects\UF1-1-A13_Spinner_Intents_2\app\src\main\AndroidManifest.xml:16:17-77
	android:name
		ADDED from D:\AndroidStudioProjects\UF1-1-A13_Spinner_Intents_2\app\src\main\AndroidManifest.xml:16:27-74
uses-sdk
INJECTED from D:\AndroidStudioProjects\UF1-1-A13_Spinner_Intents_2\app\src\main\AndroidManifest.xml reason: use-sdk injection requested
INJECTED from D:\AndroidStudioProjects\UF1-1-A13_Spinner_Intents_2\app\src\main\AndroidManifest.xml
INJECTED from D:\AndroidStudioProjects\UF1-1-A13_Spinner_Intents_2\app\src\main\AndroidManifest.xml
INJECTED from D:\AndroidStudioProjects\UF1-1-A13_Spinner_Intents_2\app\src\main\AndroidManifest.xml
INJECTED from D:\AndroidStudioProjects\UF1-1-A13_Spinner_Intents_2\app\src\main\AndroidManifest.xml
	android:targetSdkVersion
		INJECTED from D:\AndroidStudioProjects\UF1-1-A13_Spinner_Intents_2\app\src\main\AndroidManifest.xml
		ADDED from D:\AndroidStudioProjects\UF1-1-A13_Spinner_Intents_2\app\src\main\AndroidManifest.xml
		INJECTED from D:\AndroidStudioProjects\UF1-1-A13_Spinner_Intents_2\app\src\main\AndroidManifest.xml
	android:minSdkVersion
		INJECTED from D:\AndroidStudioProjects\UF1-1-A13_Spinner_Intents_2\app\src\main\AndroidManifest.xml
		ADDED from D:\AndroidStudioProjects\UF1-1-A13_Spinner_Intents_2\app\src\main\AndroidManifest.xml
		INJECTED from D:\AndroidStudioProjects\UF1-1-A13_Spinner_Intents_2\app\src\main\AndroidManifest.xml
